country,year,value
AFG,2017,56.67728
AFG,2018,59.62904
AGO,2016,19.96747
ALB,2018,54.98747
AND,2016,100
AND,2017,100
AND,2018,100
ARE,2016,100
ARE,2017,100
ATG,2017,98.3871
ATG,2018,100
AUS,2000,100
AUS,2001,100
AUS,2002,100
AUS,2003,100
AUS,2004,100
AUS,2005,100
AUS,2006,100
AUS,2007,100
AUS,2008,100
AUS,2009,100
AUS,2010,100
AUS,2011,100
AUS,2012,100
AUS,2013,100
AUS,2014,100
AUS,2015,100
AUS,2016,100
AZE,2016,100
AZE,2017,100
AZE,2018,100
BDI,2016,42.81023
BDI,2017,38.49442
BDI,2018,38.52844
BEL,2003,100
BEL,2004,100
BEL,2005,100
BEL,2006,100
BEL,2007,100
BEL,2008,100
BEL,2009,100
BEL,2010,100
BEL,2011,100
BEL,2012,100
BEL,2013,100
BEL,2014,100
BEL,2015,100
BEL,2016,100
BEL,2017,100
BEL,2018,100
BEN,2016,44.61415
BFA,2016,54.69123
BFA,2017,55.98174
BFA,2018,58.16197
BGD,2016,78.91008
BHR,2016,100
BHR,2017,100
BHR,2018,100
BLR,2016,100
BLR,2017,100
BLR,2018,100
BRB,2015,100
BRB,2016,100
BRB,2017,100
BRB,2018,100
CAF,2016,13.90443
CHE,2011,100
CHE,2012,100
CHE,2013,100
CHE,2014,100
CHE,2015,100
CHE,2016,100
CHN,2016,99.13292
CHN,2017,99.25352
CHN,2018,99.55931
CIV,2016,51.41828
CIV,2017,43.23695
CIV,2018,42.63726
CMR,2016,33.74765
CMR,2017,34.44397
COD,2015,
COK,2016,100
CPV,2016,95.41063
CPV,2017,97.08738
CPV,2018,98.78049
CRI,2016,85.0252
CRI,2017,90.21081
CRI,2018,82.87491
CUB,2018,100
CYM,2018,100
DEU,2000,100
DEU,2001,100
DEU,2002,100
DEU,2003,100
DEU,2004,100
DEU,2005,100
DEU,2006,100
DEU,2007,100
DEU,2008,100
DEU,2009,100
DEU,2010,100
DEU,2011,100
DEU,2012,100
DEU,2013,100
DEU,2014,100
DEU,2015,100
DEU,2016,100
DEU,2017,100
DEU,2018,100
DJI,2017,88.48485
DMA,2016,100
DNK,2001,100
DNK,2002,100
DNK,2003,100
DNK,2004,100
DNK,2005,100
DNK,2006,100
DNK,2007,100
DNK,2008,100
DNK,2009,100
DNK,2010,100
DNK,2011,100
DNK,2012,100
DNK,2013,100
DNK,2014,100
DNK,2015,100
DNK,2016,100
ECU,2016,40.33631
ECU,2017,41.14447
ECU,2018,40.34143
ESP,2000,100
ESP,2001,100
ESP,2002,100
ESP,2003,100
ESP,2004,100
ESP,2005,100
ESP,2006,100
ESP,2007,100
ESP,2008,100
ESP,2009,100
ESP,2010,100
ESP,2011,100
ESP,2012,100
ESP,2013,100
ESP,2014,100
ESP,2015,100
ESP,2016,100
ESP,2017,100
ESP,2018,100
EST,2000,100
EST,2001,100
EST,2002,100
EST,2003,100
EST,2004,100
EST,2005,100
EST,2006,100
EST,2007,100
EST,2008,100
EST,2009,100
EST,2010,100
EST,2011,100
EST,2012,100
EST,2013,100
EST,2014,100
EST,2015,100
EST,2016,100
FIN,2000,100
FIN,2001,100
FIN,2002,100
FIN,2003,100
FIN,2004,100
FIN,2005,100
FIN,2006,100
FIN,2007,100
FIN,2008,100
FIN,2009,100
FIN,2010,100
FIN,2011,100
FIN,2012,100
FIN,2013,100
FIN,2014,100
FIN,2015,100
FIN,2016,100
FIN,2017,100
FIN,2018,100
FIN,2019,100
FRA,2001,100
FRA,2002,100
FRA,2003,100
FRA,2004,100
FRA,2005,100
FRA,2006,100
FRA,2007,100
FRA,2008,100
FRA,2009,100
FRA,2010,100
FRA,2011,100
FRA,2012,100
FRA,2013,100
FRA,2014,100
FRA,2015,100
FRA,2016,100
FRA,2017,100
FRA,2018,100
GEO,2016,100
GEO,2017,99.74026
GEO,2018,100
GHA,2018,32.72151
GIB,2016,100
GIB,2017,100
GIN,2016,24.65739
GMB,2017,83.70221
GMB,2018,83.88313
GRD,2016,100
GRD,2017,100
GRD,2018,100
HKG,2016,100
HKG,2017,100
HKG,2018,100
HND,2016,64.63
HUN,2000,100
HUN,2001,100
HUN,2002,100
HUN,2003,100
HUN,2004,100
HUN,2005,100
HUN,2006,100
HUN,2007,100
HUN,2008,100
HUN,2009,100
HUN,2010,100
HUN,2011,100
HUN,2012,100
HUN,2013,100
HUN,2014,100
HUN,2015,100
HUN,2016,100
IDN,2016,57.83188
IDN,2017,58.09987
IDN,2018,58.26943
IND,2016,83.9422
IND,2017,80.92738
ISR,2000,100
ISR,2001,100
ISR,2002,100
ISR,2003,100
ISR,2004,100
ISR,2005,100
ISR,2006,100
ISR,2007,100
ISR,2008,100
ISR,2009,100
ISR,2010,100
ISR,2011,100
ISR,2012,100
ISR,2013,100
ISR,2014,100
ISR,2015,100
ISR,2016,100
ITA,2000,100
ITA,2001,100
ITA,2002,100
ITA,2003,100
ITA,2004,100
ITA,2005,100
ITA,2006,100
ITA,2007,100
ITA,2008,100
ITA,2009,100
ITA,2010,100
ITA,2011,100
ITA,2012,100
ITA,2013,100
ITA,2014,100
ITA,2015,100
ITA,2016,100
JAM,2016,93.92202
JAM,2017,93.92898
JOR,2018,35.5813
KNA,2016,78.78788
KOR,2000,100
KOR,2001,100
KOR,2002,100
KOR,2003,100
KOR,2004,100
KOR,2005,100
KOR,2006,100
KOR,2007,100
KOR,2008,100
KOR,2009,100
KOR,2010,100
KOR,2011,100
KOR,2012,100
KOR,2013,100
KOR,2014,100
KOR,2015,100
KOR,2016,100
KWT,2016,100
KWT,2017,100
KWT,2018,100
LBN,2016,60
LBR,2016,49.24681
LBR,2017,59.40938
LCA,2016,98.75
LCA,2017,98.75
LCA,2018,100
LKA,2016,83.06816
LKA,2017,83.7415
LKA,2018,89.71082
LVA,2016,100
MAC,2016,100
MAC,2017,100
MAC,2018,100
MAR,2016,72.90829
MAR,2017,73.87337
MAR,2018,75.18908
MCO,2016,100
MCO,2017,100
MCO,2018,100
MCO,2019,100
MDA,2016,100
MDA,2017,100
MDA,2018,100
MDV,2016,100
MDV,2017,100
MHL,2016,3.19149
MMR,2016,70.85019
MMR,2017,69.96217
MMR,2018,74.76628
MRT,2016,37.30952
MRT,2017,37.18099
MRT,2018,43.69993
MSR,2016,100
MSR,2018,100
MUS,2010,100
MUS,2011,100
MUS,2013,100
MUS,2014,100
MUS,2015,100
MUS,2016,100
MUS,2017,100
MUS,2018,100
MWI,2017,87.27123
MYS,2016,99.29315
MYS,2017,100
MYS,2018,92.11562
NER,2017,16.65634
NER,2018,15.60164
NIU,2016,100
NLD,2000,100
NLD,2001,100
NLD,2002,100
NLD,2003,100
NLD,2004,100
NLD,2005,100
NLD,2006,100
NLD,2007,100
NLD,2008,100
NLD,2009,100
NLD,2010,100
NLD,2011,100
NLD,2012,100
NLD,2013,100
NLD,2014,100
NLD,2015,100
NLD,2016,100
NLD,2017,100
NLD,2018,100
NLD,2019,100
NOR,2000,100
NOR,2001,100
NOR,2002,100
NOR,2003,100
NOR,2004,100
NOR,2005,100
NOR,2006,100
NOR,2007,100
NOR,2008,100
NOR,2009,100
NOR,2010,100
NOR,2011,100
NOR,2012,100
NOR,2013,100
NOR,2014,100
NOR,2015,100
NOR,2016,100
NOR,2017,100
NOR,2018,100
NOR,2019,100
NPL,2016,39.01046
OMN,2016,100
OMN,2017,100
OMN,2018,100
PAK,2016,52.00773
PER,2016,64.64939
PER,2017,59.54807
PER,2018,54.50715
PHL,2016,48.70244
POL,2000,100
POL,2001,100
POL,2002,100
POL,2003,100
POL,2004,100
POL,2005,100
POL,2006,100
POL,2007,100
POL,2008,100
POL,2009,100
POL,2010,100
POL,2011,100
POL,2012,100
POL,2013,100
POL,2014,100
POL,2015,100
POL,2016,100
PRT,2000,100
PRT,2001,100
PRT,2002,100
PRT,2003,100
PRT,2004,100
PRT,2005,100
PRT,2006,100
PRT,2007,100
PRT,2008,100
PRT,2009,100
PRT,2010,100
PRT,2011,100
PRT,2012,100
PRT,2013,100
PRT,2014,100
PRT,2015,100
PRT,2016,100
PRT,2017,100
PRT,2018,100
PRY,2016,66.73418
PSE,2016,99.54853
PSE,2017,100
PSE,2018,99.79716
QAT,2016,100
QAT,2017,100
QAT,2018,100
RWA,2011,34.09359
RWA,2012,34.8882
RWA,2013,35.59834
RWA,2014,37.51383
RWA,2015,39.02616
RWA,2016,38.66995
RWA,2017,45.53354
RWA,2018,53.5923
SAU,2017,100
SDN,2016,93.43653
SEN,2018,77.5985
SGP,2016,100
SGP,2017,100
SLE,2017,51.526
SLE,2018,51.58526
SLV,2016,80.27007
SLV,2017,81.78746
SMR,2018,100
STP,2017,88.04348
SVK,2014,100
SVK,2015,100
SVK,2016,100
SVN,2000,100
SVN,2001,100
SVN,2002,100
SVN,2003,100
SVN,2004,100
SVN,2005,100
SVN,2006,100
SVN,2007,100
SVN,2008,100
SVN,2009,100
SVN,2010,100
SVN,2011,100
SVN,2012,100
SVN,2013,100
SVN,2014,100
SVN,2015,100
SVN,2016,100
SWZ,2016,78.93891
SWZ,2017,79.16667
SYC,2016,100
SYC,2017,100
SYC,2018,100
TCA,2018,100
TGO,2017,20.20506
TLS,2018,67.31669
TUN,2017,88.549
TUN,2018,98.49684
URY,2015,100
URY,2016,100
URY,2017,100
UZB,2018,90.22784
VCT,2016,100
VCT,2017,100
VCT,2018,100
VEN,2016,97.49198
VGB,2016,100
VGB,2017,100
WSM,2016,100
WSM,2017,100
WSM,2018,100
ZMB,2016,75.99456
ZMB,2017,82.21192
